…
pizza2 %>% 
  filter(apartment_or_house=="A") %>% 
  group_by(street_name) %>% 
  filter(!tip_perc>60) %>% #getting rid of the outlier
  summarize(avg_tip_perc=mean(tip_perc)) %>%
  arrange(desc(avg_tip_perc))

## # A tibble: 28 x 2
##    street_name            avg_tip_perc
##    <chr>                         <dbl>
##  1 "Altis "                       20.6
##  2 "Grand Oaks Loop"              20.0
##  3 "2930 Grand Oaks Loop"         19.5
##  4 "11908 Anderson Mill "         18.9
##  5 "Altis"                        17.7
##  6 "1900 Little Elm Trl"          17.6
##  7 "2201 Lakeline "               17.2
##  8 "2850 Lakeline"                17.0
##  9 "2801 Lakeline"                16.7
## 10 "2304 Lakeline"                16.7
## # … with 18 more rows
…
