…
 I performed an inner join, which allowed me to take only the State variables found both in flu cases and vaccinations data sets. I used an inner join because I only wanted to look at flu cases and vaccinations in the 50 formal United States, as well as avoid extra observations with a bunch of missing values. Using 'inner_join', I dropped the 'Washington DC' observation from the vaccinations dataset, and all the U.S territories (i.e. American Samoa, Guam, Puerto Rico,Northen Mariana Islands, U.S Virgin Islands ) from the flu_cases data set. The final merged data set, "cases_vaccinations" contains 6 variables of State, cases, hospitalizations, deaths, age_group, percentage_vaccinated, and 150 observations total (1 for each state at a particular age group)

Data Statistics

Finding the average % vaccinated for each state across all age groups.

# Find mean % of vaccinations across all age groups
# for each state
cases_vaccinations <- cases_vaccinations %>% group_by(State) %>% 
    mutate(average_vaccinations = mean(percentage_vaccinated))
cases_vaccinations

## # A tibble: 150 x 7
## # Groups:   State [50]
##    State cases Hospitalizations Deaths age_group percentage_vacc…
##    <chr> <dbl>            <dbl>  <int> <chr>                <dbl>
##  1 Alab…  2453               NA     19 less6mon…             45.8
##  2 Alab…  2453               NA     19 6months_…             53.2
##  3 Alab…  2453               NA     19 18years_…             43  
##  4 Alas…  1563               18     13 less6mon…             45.1
##  5 Alas…  1563               18     13 6months_…             51.3
##  6 Alas…  1563               18     13 18years_…             42.9
##  7 Ariz…  8726               NA    152 less6mon…             45.9
##  8 Ariz…  8726               NA    152 6months_…             53.1
##  9 Ariz…  8726               NA    152 18years_…             43.6
## 10 Arka…   154               NA     32 less6mon…             55.2
## # … with 140 more rows, and 1 more variable: average_vaccinations <dbl>
…
## # A tibble: 1 x 1
##   `mean(national_avg)`
##                  <dbl>
## 1                 51.6

cases_vaccinations %>% filter(average_vaccinations > 
    national_average_vaccinated) %>% select(State, 
    average_vaccinations) %>% summarize(avg_vaccination_percent = mean(average_vaccinations)) %>% 
    arrange(desc(avg_vaccination_percent))

## # A tibble: 21 x 2
##    State         avg_vaccination_percent
##    <chr>                           <dbl>
##  1 Rhode Island                     66.3
##  2 Hawaii                           64.5
##  3 Vermont                          62.3
##  4 Massachusetts                    61.6
##  5 South Dakota                     61.0
##  6 Maine                            60.6
##  7 New Hampshire                    58.9
##  8 Virginia                         58.2
##  9 Iowa                             57.9
## 10 Minnesota                        57.4
## # … with 11 more rows

Let's see which states had the most cases of flu. Which states had the fewest percent average vaccinated citizens?

# Which states had the most cases of flu
cases_vaccinations %>% group_by(State) %>% summarize(case = mean(cases)) %>% 
    arrange(desc(case))

## # A tibble: 50 x 2
##    State         case
##    <chr>        <dbl>
##  1 Pennsylvania 10940
##  2 California   10545
##  3 Wisconsin     9579
##  4 Arizona       8726
##  5 Texas         6128
##  6 Nevada        5516
##  7 Connecticut   5491
##  8 Florida       3676
##  9 Illinois      3387
## 10 New York      2738
## # … with 40 more rows

# Which states had the lowest average % vaccinated
# across all age groups
cases_vaccinations %>% group_by(State) %>% summarize(avg_vaccination_percent = mean(average_vaccinations)) %>% 
    arrange(avg_vaccination_percent)

## # A tibble: 50 x 2
##    State       avg_vaccination_percent
##    <chr>                         <dbl>
##  1 Nevada                         40.2
##  2 Idaho                          43.7
##  3 Michigan                       43.7
##  4 Florida                        43.8
##  5 Georgia                        43.8
##  6 Mississippi                    44.3
##  7 Montana                        44.3
##  8 Oregon                         46.1
##  9 Alaska                         46.4
## 10 Missouri                       46.6
## # … with 40 more rows

# Do the states that had the most flu match with
# the states that had the lowest average %
# vaccinated? (Nope)
cases_vaccinations %>% group_by(State) %>% summarize(case_in_state = mean(cases), 
    avg_vaccination_state = (mean(average_vaccinations))) %>% 
    arrange(desc(case_in_state), avg_vaccination_state) %>% 
    select(State, case_in_state, avg_vaccination_state)

## # A tibble: 50 x 3
##    State        case_in_state avg_vaccination_state
##    <chr>                <dbl>                 <dbl>
##  1 Pennsylvania         10940                  51.8
##  2 California           10545                  47  
##  3 Wisconsin             9579                  48.9
##  4 Arizona               8726                  47.5
##  5 Texas                 6128                  47.9
##  6 Nevada                5516                  40.2
##  7 Connecticut           5491                  53.3
##  8 Florida               3676                  43.8
##  9 Illinois              3387                  48.5
## 10 New York              2738                  50.6
## # … with 40 more rows
…
# looking at clusters
df2 %>% mutate(cluster = pam1$clustering) %>% arrange(cluster)

## # A tibble: 63 x 7
##    State_AgeGroup cases Hospitalizations Deaths percentage_vacc…
##    <fct>          <dbl>            <dbl>  <int>            <dbl>
##  1 Alaska_less6m…  1563               18     13             45.1
##  2 Alaska_6month…  1563               18     13             51.3
##  3 Alaska_18year…  1563               18     13             42.9
##  4 Idaho_less6mo…  1171              389     23             42.9
##  5 Idaho_18years…  1171              389     23             41.4
##  6 Montana_less6…   961                9     19             44  
##  7 Montana_6mont…   961                9     19             45.6
##  8 Montana_18yea…   961                9     19             43.4
##  9 Colorado_less…  1321              578     70             49.7
## 10 Colorado_6mon…  1321              578     70             55.8
## # … with 53 more rows, and 2 more variables: average_vaccinations <dbl>,
## #   cluster <int>
…
